{
    "key": "group_5b57c16be4055",
    "title": "Footer bottom (Social)",
    "fields": [
        {
            "key": "field_5b57c1cbf215f",
            "label": "Facebook Link",
            "name": "facebook_link",
            "type": "text",
            "instructions": "",
            "required": 0,
            "conditional_logic": 0,
            "wrapper": {
                "width": "",
                "class": "",
                "id": ""
            },
            "default_value": "",
            "placeholder": "",
            "prepend": "",
            "append": "",
            "maxlength": ""
        },
        {
            "key": "field_5b57c1e2f2160",
            "label": "Email Link",
            "name": "email_link",
            "type": "text",
            "instructions": "",
            "required": 0,
            "conditional_logic": 0,
            "wrapper": {
                "width": "",
                "class": "",
                "id": ""
            },
            "default_value": "",
            "placeholder": "",
            "prepend": "",
            "append": "",
            "maxlength": ""
        }
    ],
    "location": [
        [
            {
                "param": "post",
                "operator": "==",
                "value": "266"
            }
        ]
    ],
    "menu_order": 0,
    "position": "normal",
    "style": "default",
    "label_placement": "top",
    "instruction_placement": "label",
    "hide_on_screen": [
        "permalink",
        "the_content",
        "discussion",
        "comments",
        "featured_image"
    ],
    "active": 1,
    "description": "",
    "acfcdt_manage_table_definition": 0,
    "acfcdt_table_definition_file_name": "table_182x5b57c16bf1790",
    "modified": 1539231886
}