{
    "key": "group_5b57c24c208cc",
    "title": "Footer Top (Contact)",
    "fields": [
        {
            "key": "field_5b57c25c18eb8",
            "label": "General phone text",
            "name": "general_phone_text",
            "type": "text",
            "instructions": "",
            "required": 0,
            "conditional_logic": 0,
            "wrapper": {
                "width": "",
                "class": "",
                "id": ""
            },
            "default_value": "",
            "placeholder": "",
            "prepend": "",
            "append": "",
            "maxlength": ""
        },
        {
            "key": "field_5b626024a5c18",
            "label": "General phone title",
            "name": "general_phone_title",
            "type": "text",
            "instructions": "",
            "required": 0,
            "conditional_logic": 0,
            "wrapper": {
                "width": "",
                "class": "",
                "id": ""
            },
            "default_value": "",
            "placeholder": "",
            "prepend": "",
            "append": "",
            "maxlength": ""
        },
        {
            "key": "field_5b57c28418eb9",
            "label": "Supplier phone text",
            "name": "supplier_phone_text",
            "type": "text",
            "instructions": "",
            "required": 0,
            "conditional_logic": 0,
            "wrapper": {
                "width": "",
                "class": "",
                "id": ""
            },
            "default_value": "",
            "placeholder": "",
            "prepend": "",
            "append": "",
            "maxlength": ""
        },
        {
            "key": "field_5b62604ba5c19",
            "label": "Supplier phone title",
            "name": "supplier_phone_title",
            "type": "text",
            "instructions": "",
            "required": 0,
            "conditional_logic": 0,
            "wrapper": {
                "width": "",
                "class": "",
                "id": ""
            },
            "default_value": "",
            "placeholder": "",
            "prepend": "",
            "append": "",
            "maxlength": ""
        }
    ],
    "location": [
        [
            {
                "param": "post",
                "operator": "==",
                "value": "260"
            }
        ]
    ],
    "menu_order": 0,
    "position": "normal",
    "style": "default",
    "label_placement": "top",
    "instruction_placement": "label",
    "hide_on_screen": [
        "permalink",
        "the_content",
        "discussion",
        "comments",
        "featured_image"
    ],
    "active": 1,
    "description": "",
    "acfcdt_manage_table_definition": 0,
    "acfcdt_table_definition_file_name": "table_188x5b57c24c2e23e",
    "modified": 1539231894
}