{
    "key": "group_5b515e0d6a06b",
    "title": "Components - Field Groups",
    "fields": [
        {
            "key": "field_5b56c84ddb32f",
            "label": "Header",
            "name": "",
            "type": "tab",
            "instructions": "",
            "required": 0,
            "conditional_logic": 0,
            "wrapper": {
                "width": "",
                "class": "",
                "id": ""
            },
            "placement": "top",
            "endpoint": 0
        },
        {
            "key": "field_5b5684e1a1d28",
            "label": "Banner Image",
            "name": "banner_image",
            "type": "image",
            "instructions": "Leave blank to have a header without the image",
            "required": 0,
            "conditional_logic": 0,
            "wrapper": {
                "width": "",
                "class": "",
                "id": ""
            },
            "return_format": "url",
            "preview_size": "thumbnail",
            "library": "all",
            "min_width": "",
            "min_height": "",
            "min_size": "",
            "max_width": "",
            "max_height": "",
            "max_size": "",
            "mime_types": ""
        },
        {
            "key": "field_5b5684fea1d29",
            "label": "Banner Title",
            "name": "banner_title",
            "type": "text",
            "instructions": "",
            "required": 1,
            "conditional_logic": 0,
            "wrapper": {
                "width": "",
                "class": "",
                "id": ""
            },
            "default_value": "",
            "placeholder": "",
            "prepend": "",
            "append": "",
            "maxlength": ""
        },
        {
            "key": "field_5b56850ea1d2a",
            "label": "Banner Sub Title",
            "name": "banner_sub_title",
            "type": "wysiwyg",
            "instructions": "Leave blank to only display the title",
            "required": 0,
            "conditional_logic": 0,
            "wrapper": {
                "width": "",
                "class": "",
                "id": ""
            },
            "default_value": "",
            "tabs": "all",
            "toolbar": "full",
            "media_upload": 0,
            "delay": 0
        },
        {
            "key": "field_5b56c859db330",
            "label": "Insert layouts for the page",
            "name": "",
            "type": "tab",
            "instructions": "",
            "required": 0,
            "conditional_logic": 0,
            "wrapper": {
                "width": "",
                "class": "",
                "id": ""
            },
            "placement": "top",
            "endpoint": 0
        },
        {
            "key": "field_5b516cae06dc3",
            "label": "Layouts",
            "name": "layouts",
            "type": "flexible_content",
            "instructions": "",
            "required": 0,
            "conditional_logic": 0,
            "wrapper": {
                "width": "",
                "class": "",
                "id": ""
            },
            "layouts": {
                "5b5169e55a8cb": {
                    "key": "5b5169e55a8cb",
                    "name": "info_block",
                    "label": "Grid content block",
                    "display": "table",
                    "sub_fields": [
                        {
                            "key": "field_5b516facd7845",
                            "label": "Info block",
                            "name": "info_block_repeater",
                            "type": "repeater",
                            "instructions": "",
                            "required": 0,
                            "conditional_logic": 0,
                            "wrapper": {
                                "width": "",
                                "class": "",
                                "id": ""
                            },
                            "collapsed": "field_5b516ede06dc4",
                            "min": 0,
                            "max": 0,
                            "layout": "block",
                            "button_label": "Add Info Block",
                            "sub_fields": [
                                {
                                    "key": "field_5b516ede06dc4",
                                    "label": "Title",
                                    "name": "grid_title",
                                    "type": "text",
                                    "instructions": "",
                                    "required": 0,
                                    "conditional_logic": 0,
                                    "wrapper": {
                                        "width": "",
                                        "class": "",
                                        "id": ""
                                    },
                                    "default_value": "",
                                    "placeholder": "",
                                    "prepend": "",
                                    "append": "",
                                    "maxlength": ""
                                },
                                {
                                    "key": "field_5b516ef506dc5",
                                    "label": "Content",
                                    "name": "grid_content",
                                    "type": "textarea",
                                    "instructions": "",
                                    "required": 0,
                                    "conditional_logic": 0,
                                    "wrapper": {
                                        "width": "",
                                        "class": "",
                                        "id": ""
                                    },
                                    "default_value": "",
                                    "placeholder": "",
                                    "maxlength": "",
                                    "rows": "",
                                    "new_lines": ""
                                },
                                {
                                    "key": "field_5b56c4d315987",
                                    "label": "Link",
                                    "name": "grid_link",
                                    "type": "link",
                                    "instructions": "",
                                    "required": 0,
                                    "conditional_logic": 0,
                                    "wrapper": {
                                        "width": "50",
                                        "class": "",
                                        "id": ""
                                    },
                                    "return_format": "array"
                                }
                            ]
                        }
                    ],
                    "min": "",
                    "max": ""
                },
                "layout_5b56d1b38b4c9": {
                    "key": "layout_5b56d1b38b4c9",
                    "name": "eligibility_carousel",
                    "label": "Eligibility carousel",
                    "display": "block",
                    "sub_fields": [
                        {
                            "key": "field_5b56d1c28b4ca",
                            "label": "Carousel",
                            "name": "carousel",
                            "type": "text",
                            "instructions": "Selecting Eligibility Carousel drops a static carousel into the layout",
                            "required": 0,
                            "conditional_logic": 0,
                            "wrapper": {
                                "width": "",
                                "class": "",
                                "id": ""
                            },
                            "default_value": "",
                            "placeholder": "This is a static layout, this field can be ignored.",
                            "prepend": "",
                            "append": "",
                            "maxlength": ""
                        }
                    ],
                    "min": "",
                    "max": ""
                },
                "layout_5bbe9f6063f52": {
                    "key": "layout_5bbe9f6063f52",
                    "name": "news_grid",
                    "label": "News Grid",
                    "display": "block",
                    "sub_fields": [
                        {
                            "key": "field_5bbe9f6063f53",
                            "label": "News Grid",
                            "name": "static_news_grid",
                            "type": "text",
                            "instructions": "Selecting News Grid drops a static grid layout which lists out all the active news",
                            "required": 0,
                            "conditional_logic": 0,
                            "wrapper": {
                                "width": "",
                                "class": "",
                                "id": ""
                            },
                            "default_value": "",
                            "placeholder": "This is a static layout, this field can be ignored.",
                            "prepend": "",
                            "append": "",
                            "maxlength": ""
                        }
                    ],
                    "min": "",
                    "max": ""
                },
                "layout_5b5ac119e5470": {
                    "key": "layout_5b5ac119e5470",
                    "name": "content_block",
                    "label": "Customized content editor block",
                    "display": "block",
                    "sub_fields": [
                        {
                            "key": "field_5b5ac129e5471",
                            "label": "Basic Content Block",
                            "name": "basic_content_block",
                            "type": "wysiwyg",
                            "instructions": "",
                            "required": 0,
                            "conditional_logic": 0,
                            "wrapper": {
                                "width": "",
                                "class": "",
                                "id": ""
                            },
                            "default_value": "",
                            "tabs": "all",
                            "toolbar": "full",
                            "media_upload": 0,
                            "delay": 0
                        }
                    ],
                    "min": "",
                    "max": ""
                },
                "layout_5b5e5f14f3bb5": {
                    "key": "layout_5b5e5f14f3bb5",
                    "name": "accordions",
                    "label": "Accordions",
                    "display": "block",
                    "sub_fields": [
                        {
                            "key": "field_5b74d78b5103a",
                            "label": "Accordion header type",
                            "name": "accordion_header_type",
                            "type": "select",
                            "instructions": "",
                            "required": 1,
                            "conditional_logic": 0,
                            "wrapper": {
                                "width": "",
                                "class": "",
                                "id": ""
                            },
                            "choices": {
                                "express": "Express return point header",
                                "bulk": "Bulk depot return point header",
                                "general": "General header",
                                "no": "No header"
                            },
                            "default_value": [],
                            "allow_null": 0,
                            "multiple": 0,
                            "ui": 0,
                            "return_format": "value",
                            "ajax": 0,
                            "placeholder": ""
                        },
                        {
                            "key": "field_5b74d89d3a8c0",
                            "label": "Accordion header",
                            "name": "accordion_header",
                            "type": "textarea",
                            "instructions": "",
                            "required": 0,
                            "conditional_logic": [
                                [
                                    {
                                        "field": "field_5b74d78b5103a",
                                        "operator": "!=",
                                        "value": "No header"
                                    }
                                ]
                            ],
                            "wrapper": {
                                "width": "",
                                "class": "",
                                "id": ""
                            },
                            "default_value": "",
                            "placeholder": "",
                            "maxlength": "",
                            "rows": 2,
                            "new_lines": ""
                        },
                        {
                            "key": "field_5b5e5f36f3bb6",
                            "label": "Accordions Block",
                            "name": "accordions_block",
                            "type": "relationship",
                            "instructions": "",
                            "required": 0,
                            "conditional_logic": 0,
                            "wrapper": {
                                "width": "",
                                "class": "",
                                "id": ""
                            },
                            "post_type": [
                                "accordions"
                            ],
                            "taxonomy": [],
                            "filters": [
                                "search",
                                "post_type",
                                "taxonomy"
                            ],
                            "elements": "",
                            "min": "",
                            "max": "",
                            "return_format": "object"
                        }
                    ],
                    "min": "",
                    "max": ""
                },
                "layout_5b62476481328": {
                    "key": "layout_5b62476481328",
                    "name": "two_column_with_image_block",
                    "label": "Two column with image block",
                    "display": "block",
                    "sub_fields": [
                        {
                            "key": "field_5b624e66799e5",
                            "label": "Two column repeater",
                            "name": "two_column_repeater",
                            "type": "repeater",
                            "instructions": "",
                            "required": 0,
                            "conditional_logic": 0,
                            "wrapper": {
                                "width": "",
                                "class": "",
                                "id": ""
                            },
                            "collapsed": "",
                            "min": 0,
                            "max": 0,
                            "layout": "block",
                            "button_label": "",
                            "sub_fields": [
                                {
                                    "key": "field_5b62477381329",
                                    "label": "Left image",
                                    "name": "left_image",
                                    "type": "image",
                                    "instructions": "",
                                    "required": 0,
                                    "conditional_logic": 0,
                                    "wrapper": {
                                        "width": "",
                                        "class": "",
                                        "id": ""
                                    },
                                    "return_format": "url",
                                    "preview_size": "thumbnail",
                                    "library": "all",
                                    "min_width": "",
                                    "min_height": "",
                                    "min_size": "",
                                    "max_width": "",
                                    "max_height": "",
                                    "max_size": "",
                                    "mime_types": ""
                                },
                                {
                                    "key": "field_5b6247b48132a",
                                    "label": "Right content",
                                    "name": "right_content",
                                    "type": "wysiwyg",
                                    "instructions": "",
                                    "required": 0,
                                    "conditional_logic": 0,
                                    "wrapper": {
                                        "width": "",
                                        "class": "",
                                        "id": ""
                                    },
                                    "default_value": "",
                                    "tabs": "all",
                                    "toolbar": "full",
                                    "media_upload": 1,
                                    "delay": 0
                                }
                            ]
                        }
                    ],
                    "min": "",
                    "max": ""
                },
                "layout_5b6252b8d6f84": {
                    "key": "layout_5b6252b8d6f84",
                    "name": "component_separator_block",
                    "label": "Component separator block",
                    "display": "block",
                    "sub_fields": [
                        {
                            "key": "field_5b6252d1d6f85",
                            "label": "Component separator",
                            "name": "component_separator",
                            "type": "text",
                            "instructions": "Selecting Component separator drops a static separator into the layout",
                            "required": 0,
                            "conditional_logic": 0,
                            "wrapper": {
                                "width": "",
                                "class": "",
                                "id": ""
                            },
                            "default_value": "",
                            "placeholder": "This is a static layout, this field can be ignored.",
                            "prepend": "",
                            "append": "",
                            "maxlength": ""
                        }
                    ],
                    "min": "",
                    "max": ""
                },
                "layout_5b625776dbd26": {
                    "key": "layout_5b625776dbd26",
                    "name": "select_pre_built_content_blocks",
                    "label": "Select pre built content blocks",
                    "display": "block",
                    "sub_fields": [
                        {
                            "key": "field_5b625786dbd27",
                            "label": "Pre built content block",
                            "name": "pre_built_content_block",
                            "type": "relationship",
                            "instructions": "",
                            "required": 0,
                            "conditional_logic": 0,
                            "wrapper": {
                                "width": "",
                                "class": "",
                                "id": ""
                            },
                            "post_type": [
                                "static_blocks"
                            ],
                            "taxonomy": [
                                "static_block:prebuiltblocks"
                            ],
                            "filters": [
                                "post_type",
                                "taxonomy"
                            ],
                            "elements": "",
                            "min": "",
                            "max": "",
                            "return_format": "object"
                        }
                    ],
                    "min": "",
                    "max": ""
                },
                "layout_5bd11e308753a": {
                    "key": "layout_5bd11e308753a",
                    "name": "news_carousel",
                    "label": "News Carousel",
                    "display": "block",
                    "sub_fields": [
                        {
                            "key": "field_5bd11e4d8753b",
                            "label": "News Carousel Static",
                            "name": "news_carousel_static",
                            "type": "text",
                            "instructions": "Selecting News Carousel drops a static news carousel with featured news into the layout",
                            "required": 0,
                            "conditional_logic": 0,
                            "wrapper": {
                                "width": "",
                                "class": "",
                                "id": ""
                            },
                            "default_value": "",
                            "placeholder": "This is a static layout, this field can be ignored.",
                            "prepend": "",
                            "append": "",
                            "maxlength": ""
                        }
                    ],
                    "min": "",
                    "max": ""
                }
            },
            "button_label": "Add Layout",
            "min": "",
            "max": ""
        }
    ],
    "location": [
        [
            {
                "param": "page_template",
                "operator": "==",
                "value": "weblates\/master.php"
            }
        ]
    ],
    "menu_order": 0,
    "position": "normal",
    "style": "default",
    "label_placement": "top",
    "instruction_placement": "label",
    "hide_on_screen": [
        "the_content",
        "excerpt",
        "discussion",
        "comments",
        "featured_image"
    ],
    "active": 1,
    "description": "",
    "acfcdt_manage_table_definition": 0,
    "acfcdt_table_definition_file_name": "table_45x5b515e0d7bd97",
    "modified": 1540441247
}