<?xml version="1.0" encoding="UTF-8" standalone="no"?>
<svg width="13px" height="13px" viewBox="0 0 13 13" version="1.1" xmlns="http://www.w3.org/2000/svg" xmlns:xlink="http://www.w3.org/1999/xlink">
    <!-- Generator: Sketch 50 (54983) - http://www.bohemiancoding.com/sketch -->
    <title>Group</title>
    <desc>Created with Sketch.</desc>
    <defs>
        <polygon id="path-1" points="-0.000153846154 6.15384615e-05 8 6.15384615e-05 8 8.00006154 -0.000153846154 8.00006154"></polygon>
    </defs>
    <g id="UI-LIBRARY" stroke="none" stroke-width="1" fill="none" fill-rule="evenodd">
        <g id="01-Typography" transform="translate(-743.000000, -2720.000000)">
            <g id="Group-2" transform="translate(584.000000, 2713.000000)">
                <g id="Group" transform="translate(159.000000, 7.000000)">
                    <path d="M10.3529412,6.52941176 C9.99511765,6.52941176 9.70588235,6.81929412 9.70588235,7.17647059 L9.70588235,11.0588235 C9.70588235,11.416 9.416,11.7058824 9.05882353,11.7058824 L1.94117647,11.7058824 C1.58464706,11.7058824 1.29411765,11.416 1.29411765,11.0588235 L1.29411765,3.94117647 C1.29411765,3.58464706 1.58464706,3.29411765 1.94117647,3.29411765 L5.82352941,3.29411765 C6.18070588,3.29411765 6.47058824,3.00423529 6.47058824,2.64705882 C6.47058824,2.28988235 6.18070588,2 5.82352941,2 L1.94117647,2 C0.870941176,2 0,2.87094118 0,3.94117647 L0,11.0588235 C0,12.1290588 0.870941176,13 1.94117647,13 L9.05882353,13 C10.1290588,13 11,12.1290588 11,11.0588235 L11,7.17647059 C11,6.81929412 10.7107647,6.52941176 10.3529412,6.52941176" id="Fill-1" fill="#ffffff"></path>
                    <g id="Group-5" transform="translate(5.000000, 0.000000)">
                        <mask id="mask-2" fill="white">
                            <use xlink:href="#path-1"></use>
                        </mask>
                        <g id="Clip-4"></g>
                        <path d="M7.95261538,0.380369231 C7.89046154,0.2296 7.77046154,0.1096 7.61969231,0.0474461538 C7.54461538,0.0160615385 7.46461538,6.15384615e-05 7.38461538,6.15384615e-05 L3.69230769,6.15384615e-05 C3.352,6.15384615e-05 3.07692308,0.275753846 3.07692308,0.615446154 C3.07692308,0.955138462 3.352,1.23083077 3.69230769,1.23083077 L5.89907692,1.23083077 L0.180307692,6.9496 C-0.0603076923,7.1896 -0.0603076923,7.57913846 0.180307692,7.81975385 C0.300307692,7.93975385 0.457846154,8.00006154 0.615384615,8.00006154 C0.772923077,8.00006154 0.930461538,7.93975385 1.05046154,7.81975385 L6.76923077,2.10098462 L6.76923077,4.30775385 C6.76923077,4.64744615 7.04430769,4.92313846 7.38461538,4.92313846 C7.72492308,4.92313846 8,4.64744615 8,4.30775385 L8,0.615446154 C8,0.535446154 7.984,0.455446154 7.95261538,0.380369231" id="Fill-3" fill="#ffffff" mask="url(#mask-2)"></path>
                    </g>
                </g>
            </g>
        </g>
    </g>
</svg>